{
    "key": "jsd-request-view-action-example",
    "name": "JIRA Service Desk Request View Action Example Add-on",
    "description": "An ACE and Node.js add showcasing the creation of a JIRA Service Desk request view action",
    "vendor": {
        "name": "Atlassian",
        "url": "https://www.atlassian.com"
    },
    "baseUrl": "{{localBaseUrl}}",
    "links": {
        "self": "{{localBaseUrl}}/atlassian-connect.json",
        "homepage": "{{localBaseUrl}}/atlassian-connect.json"
    },
    "authentication": {
        "type": "jwt"
    },
    "lifecycle": {
        // atlassian-connect-express expects this route to be configured to manage the installation handshake
        "installed": "/installed"
    },
    "scopes": [
        "READ"
    ],
    "modules": {
        "serviceDeskPortalRequestViewActions": [
            {
                "key": "sd-portal-request-view-action",
                "name": {
                    "value": "My request view action"
                },
                "url": "/sd-portal-request-view-content",
                "icon": {
                "url": "/img/testicon.png"
                },
                "target": {
                    "type": "page"
                }
            }
        ]
    }
}
